…
    ## Rows: 578 Columns: 4
    ## ── Column specification ────────────────────────────────────────────────────────
    ## Delimiter: ","
    ## dbl (4): peso, tempo, frango, dieta
    ## 
    ## ℹ Use `spec()` to retrieve the full column specification for this data.
    ## ℹ Specify the column types or set `show_col_types = FALSE` to quiet this message.

``` r
frango_dieta
```

    ## # A tibble: 578 × 4
    ##     peso tempo frango dieta
    ##    <dbl> <dbl>  <dbl> <dbl>
    ##  1    42     0      1     1
    ##  2    51     2      1     1
    ##  3    59     4      1     1
    ##  4    64     6      1     1
    ##  5    76     8      1     1
    ##  6    93    10      1     1
    ##  7   106    12      1     1
    ##  8   125    14      1     1
    ##  9   149    16      1     1
    ## 10   171    18      1     1
    ## # … with 568 more rows
…
    ## Rows: 39 Columns: 13
    ## ── Column specification ────────────────────────────────────────────────────────
    ## Delimiter: ","
    ## dbl (13): ano, jan, fev, mar, abr, mai, jun, jul, ago, set, out, nov, dez
    ## 
    ## ℹ Use `spec()` to retrieve the full column specification for this data.
    ## ℹ Specify the column types or set `show_col_types = FALSE` to quiet this message.

``` r
dados_co2
```

    ## # A tibble: 39 × 13
    ##      ano   jan   fev   mar   abr   mai   jun   jul   ago   set   out   nov   dez
    ##    <dbl> <dbl> <dbl> <dbl> <dbl> <dbl> <dbl> <dbl> <dbl> <dbl> <dbl> <dbl> <dbl>
    ##  1  1959  315.  316.  316.  318.  318.  318   316.  315.  314.  313.  315.  315.
    ##  2  1960  316.  317.  317.  319.  320.  319.  318.  316.  314   314.  315.  316.
    ##  3  1961  317.  318.  318.  319.  320.  320.  318.  317.  315.  315.  316.  317.
    ##  4  1962  318.  318.  320.  320.  321.  320.  319.  317.  316.  315.  317.  318.
    ##  5  1963  319.  319.  320.  321.  322.  321.  320.  318.  316.  316.  317.  318.
    ##  6  1964  319.  320.  321.  321.  322.  322.  320.  319.  317.  317.  318.  319.
    ##  7  1965  319.  320.  321.  322.  322   322.  321.  319.  318.  317.  319.  319.
    ##  8  1966  320.  321.  322.  324.  324.  324.  322.  320.  318.  318.  320.  321.
    ##  9  1967  322.  322.  323.  324.  325.  324.  322.  321.  319.  319.  321.  322.
    ## 10  1968  322.  323.  324.  325.  325.  325.  324.  322.  320.  320.  321.  323.
    ## # … with 29 more rows
…
3)  Organizei o conjunto de dados na forma tidy com o seguinte código

``` r
dados_co2 %>%                
  pivot_longer(
    !ano,              
    names_to = "mes",    
    values_to = "ppm"  
  )
```

    ## # A tibble: 468 × 3
    ##      ano mes     ppm
    ##    <dbl> <chr> <dbl>
    ##  1  1959 jan    315.
    ##  2  1959 fev    316.
    ##  3  1959 mar    316.
    ##  4  1959 abr    318.
    ##  5  1959 mai    318.
    ##  6  1959 jun    318 
    ##  7  1959 jul    316.
    ##  8  1959 ago    315.
    ##  9  1959 set    314.
    ## 10  1959 out    313.
    ## # … with 458 more rows
…
